{
  "setuid": 10000,
  "setgid": 10000,
  "listen_port": 80,
  "request_validity_sec": 5,

  "server_name":"s1",
  "service_primary_domain": "top-level.domain",

  "volume_directory": "/var/lib/monster/relayer/"
}
